{
  "poems":[
    {
      "name":"Eternity",
      "words": [
        "He who binds to himself a joy",
        "Does the winged life destroy ",
        "He who kisses the joy as it flies",
        "Lives in Eternity's sun rise"
      ]
    },
    {
      "name":"I Heard a Fly Buzz When I Died",
      "words": [
        "I heard a fly buzz when I died",
        "The stillness round my form",
        "Was like the stillness in the air",
        "Between the heaves of storm"
      ]
    },
    {
      "name": "It Is At Moments After I Have Dreamed",
      "words": [
        "with your peculiar mouth my heart made wise",
        "at moments when the glassy darkness holds",
        "one pierced moment whiter than the rest"
      ]
    }
  ]
}
